1 10 20
100 200 125
201 210 89
900 1000 174
11 15 18
27 33 112
20 66 113
99 111 114
222 888 179
404 886 179
135 980 179
116 272 128
990 2733 209
2333 2987 217
232 2344 183
2345 5788 238
132 176 125
56 200 125
45 54 113
67 76 116
89 98 119
101 110 114
61 139 122
155 172 125
173 175 81
89 104 119
500 600 137
700 800 171
750 850 153
850 950 179
350 450 134
550 650 145
33 133 122
67 200 125
654 670 145
555 560 88
6320 69745 340
196908 401408 443
23689 113866 354
467363 861456 525
263297 546771 470
128950 132529 344
36086 100563 351
81188 306602 443
544870 648736 509
4362 19846 279
1997 1999 51
240783 635176 509
410968 184393 449
197985 148804 383
534026 998749 525
27876 48404 324
366578 333623 441
143181 532789 470
762687 704428 504
921253 533789 525
587923 877665 525
604053 340417 470
18169 257821 443
132986 548795 470
370015 311977 441
905978 575529 525
394266 146239 443
22799 419847 449
521 996 179
874 7422 262
585001 160955 470
613367 742444 509
330443 598767 470
789324 133578 509
842580 142603 525
674552 224887 509
326338 320988 384
822799 226288 509
483038 896454 525
387446 327176 441
715117 873274 525
870280 818240 525
141623 719812 509
977 1111 169
1111 2222 182
2222 3333 217
7484 10000 260
4444 5555 210
5000 6000 236
6000 7000 262
7000 8000 252
8000 9000 247
9000 10000 260
11000 12000 250
13000 14000 276
15000 16000 271
17000 18000 279
16000 17000 266
18000 19000 261
19000 20000 274
20000 21000 256
21000 22000 269
22000 23000 269
23000 24000 282
24000 25000 264
25000 26000 264
26000 27000 308
27000 28000 259
28000 29000 259
29000 30000 272
