1 10 20
100 200 125
201 210 89
900 1000 174
1 1 1
21 30 112
31 40 107
41 50 110
51 60 113
61 70 108
71 80 116
81 90 111
91 100 119
200 200 27
22 22 16
10 10 7
39 39 35
104 104 13
371 371 46
201 300 128
301 400 144
401 500 142
501 600 137
601 700 145
701 800 171
801 900 179
20 10 21
150 130 117
180 150 125
299 222 128
100 50 119
200 1 125
1000 2000 182
2001 3000 217
3001 4000 238
4001 5000 215
5001 6000 236
6001 7000 262
7001 8000 252
8001 9000 247
9001 10000 260
3000 3100 186
3101 3200 199
3201 3300 168
3301 3400 181
3401 3500 181
3501 3600 194
3601 3700 207
3701 3800 238
3801 3900 176
300 310 87
311 320 131
321 330 144
331 340 113
341 350 126
351 360 126
361 370 95
371 380 108
381 390 121
200 210 89
211 220 115
221 230 115
231 240 128
241 250 110
251 260 123
261 270 123
271 280 92
281 290 118
400 410 41
411 420 134
421 430 103
431 440 116
441 450 116
451 460 129
461 470 129
471 480 129
481 490 142
500 510 111
511 520 124
521 530 124
531 540 124
541 550 137
551 560 137
561 570 106
571 580 119
581 590 119
600 610 132
611 620 132
621 630 132
631 640 132
641 650 145
651 660 145
661 670 145
671 680 114
681 690 127
700 710 171
711 720 65
721 730 96
731 740 140
741 750 96
751 760 140
761 770 153
771 780 153
781 790 122
1 100000 351
1 1000000 525
3920 8079 262
2203 3001 217
9483 10100 242
